event: tool_step
data: {"toolName":"activate_skill","toolCallId":"chatcmpl-tool-83083989b1e41ae3","args":{"slug":"construtor-dashboards"},"phase":"call"}

event: tool_step
data: {"toolName":"activate_skill","toolCallId":"chatcmpl-tool-83083989b1e41ae3","output":{"error":"Skill \"construtor-dashboards\" nao encontrada.","available":[]},"phase":"result"}

event: usage
data: {"inputTokens":4879,"inputTokenDetails":{"noCacheTokens":4815,"cacheReadTokens":64,"cacheWriteTokens":0},"outputTokens":33,"outputTokenDetails":{},"totalTokens":4912,"raw":{"input_tokens":4815,"output_tokens":33,"cache_creation_input_tokens":0,"cache_read_input_tokens":64,"service_tier":"standard"},"cachedInputTokens":64}

event: message_start
data: {"messageId":"asg_1782344851285_xme2on"}

event: text_delta
data: {"messageId":"asg_1782344851285_xme2on","delta":"A skill `construtor-dashboards` não está disponível no momento. Mesmo assim, posso te ajudar a montar o dashboard de receita de Palmas 2025. Vou seguir o fluxo padrão:\n\n1. Listar as conexões disponíveis\n2. Inspecionar o schema para encontrar os dados de receita\n3. Validar queries\n4. Criar os gráficos\n5. Montar o dashboard\n\nVamos começar descobrendo as conexões:"}

event: tool_step
data: {"toolName":"list_connections","toolCallId":"call_QnRhMzy2BJgkT6IEVOYevEz8","args":{},"phase":"call"}

event: tool_step
data: {"toolName":"list_connections","toolCallId":"call_QnRhMzy2BJgkT6IEVOYevEz8","output":{"connections":[{"id":"cmqplyc2s0005ny0p11y1uqh8","name":"palmas","description":null,"type":"POSTGRES","host":"177.126.90.21","port":38432,"database":"sch","username":"FiscalizaIA","sslMode":"require","options":null,"ownerId":"cmqo7c8y60000ny2fg7abq34w","departmentId":null,"visibility":"ORG","isActive":true,"status":"ok","lastTestedAt":"2026-06-23T05:25:11.180Z","createdAt":"2026-06-22T19:27:59.140Z","updatedAt":"2026-06-23T05:25:11.181Z"}],"total":1,"page":1,"pageSize":50,"totalPages":1},"phase":"result"}

event: usage
data: {"inputTokens":4947,"inputTokenDetails":{"noCacheTokens":4819,"cacheReadTokens":128,"cacheWriteTokens":0},"outputTokens":111,"outputTokenDetails":{},"totalTokens":5058,"raw":{"input_tokens":4819,"output_tokens":111,"cache_creation_input_tokens":0,"cache_read_input_tokens":128,"service_tier":"standard"},"cachedInputTokens":128}

event: text_delta
data: {"messageId":"asg_1782344851285_xme2on","delta":"Encontrei a conexão `palmas`. Agora vou inspecionar o schema — primeiro a lista de tabelas:"}

event: tool_step
data: {"toolName":"get_connection_schema","toolCallId":"call_019efc082537780282d4d3ae","args":{"connectionId":"cmqplyc2s0005ny0p11y1uqh8"},"phase":"call"}

event: tool_step
data: {"toolName":"get_connection_schema","toolCallId":"call_019efc082537780282d4d3ae","output":{"connectionId":"cmqplyc2s0005ny0p11y1uqh8","cached":true,"fetchedAt":"2026-06-24T23:45:18.405Z","tableCount":1000,"mode":"tables","tables":[{"schema":"auditoria","name":"auditoria","columnCount":11},{"schema":"biblioteca","name":"abastecimentoagua","columnCount":2},{"schema":"biblioteca","name":"abastecimentoenergia","columnCount":2},{"schema":"biblioteca","name":"agendaevento","columnCount":4},{"schema":"biblioteca","name":"alimento","columnCount":8},{"schema":"biblioteca","name":"alimentonutricional","columnCount":3},{"schema":"biblioteca","name":"alimentovariacao","columnCount":5},{"schema":"biblioteca","name":"alteracaoendereco","columnCount":3},{"schema":"biblioteca","name":"aluno","columnCount":15},{"schema":"biblioteca","name":"alunobeneficio","columnCount":7},{"schema":"biblioteca","name":"alunorecavaliacaoinep","columnCount":2},{"schema":"biblioteca","name":"alunoregistro","columnCount":3},{"schema":"biblioteca","name":"alunoresponsavel","columnCount":4},{"schema":"biblioteca","name":"aplicacaofundeb","columnCount":2},{"schema":"biblioteca","name":"areaatividade","columnCount":3},{"schema":"biblioteca","name":"areaatuacaoaee","columnCount":2},{"schema":"biblioteca","name":"areaformacao","columnCount":2},{"schema":"biblioteca","name":"arredondamento","columnCount":3},{"schema":"biblioteca","name":"arredondamentovalor","columnCount":5},{"schema":"biblioteca","name":"aspalmoxarifado","columnCount":10},{"schema":"biblioteca","name":"aspdistrito","columnCount":2},{"schema":"biblioteca","name":"aspempresa","columnCount":18},{"schema":"biblioteca","name":"aspestocagem","columnCount":10},{"schema":"biblioteca","name":"aspeventos","columnCount":3},{"schema":"biblioteca","name":"aspgrupomaterial","columnCount":2},{"schema":"biblioteca","name":"aspmaterial","columnCount":19},{"schema":"biblioteca","name":"aspmaterialbeneficiado","columnCount":3},{"schema":"biblioteca","name":"aspmaterialvalor","columnCount":3},{"schema":"biblioteca","name":"asptipomaterial","columnCount":2},{"schema":"biblioteca","name":"asptipopormaterial","columnCount":4},{"schema":"biblioteca","name":"aspunidademedida","columnCount":3},{"schema":"biblioteca","name":"assunto","columnCount":3},{"schema":"biblioteca","name":"atendtranscancelamento","columnCount":5},{"schema":"biblioteca","name":"atribuicaoprofessor","columnCount":4},{"schema":"biblioteca","name":"aulasatribuicao","columnCount":6},{"schema":"biblioteca","name":"aulasdadas","columnCount":8},{"schema":"biblioteca","name":"ausencia","columnCount":2},{"schema":"biblioteca","name":"autor","columnCount":5},{"schema":"biblioteca","name":"avaliacao2aluno","columnCount":4},{"schema":"biblioteca","name":"avaliacao2alunoprocesso","columnCount":7},{"schema":"biblioteca","name":"avaliacaodesenv","columnCount":7},{"schema":"biblioteca","name":"avaliacaodesenvaplaee","columnCount":2},{"schema":"biblioteca","name":"avaliacaodesenvaplcomp","columnCount":4},{"schema":"biblioteca","name":"avaliacaodesenvaplesc","columnCount":3},{"schema":"biblioteca","name":"avaliacaodesenvitem","columnCount":5},{"schema":"biblioteca","name":"avaliacaodesenvitemalt","columnCount":6},{"schema":"biblioteca","name":"avaliacaodesenvopclanc","columnCount":4},{"schema":"biblioteca","name":"avaliacaodesenvperiodo","columnCount":6},{"schema":"biblioteca","name":"avaliacaodesenvturma","columnCount":10},{"schema":"biblioteca","name":"avaliacaodesenvturmaaluno","columnCount":8},{"schema":"biblioteca","name":"avaliacaodesenvturmaaplaee","columnCount":3},{"schema":"biblioteca","name":"avaliacaodesenvturmaaplcomp","columnCount":3},{"schema":"biblioteca","name":"bairro","columnCount":2},{"schema":"biblioteca","name":"baixafrequencia","columnCount":2},{"schema":"biblioteca","name":"biblioteca","columnCount":5},{"schema":"biblioteca","name":"bibliotecaaula","columnCount":8},{"schema":"biblioteca","name":"bimestre","columnCount":2},{"schema":"biblioteca","name":"cadastrofundeb","columnCount":8},{"schema":"biblioteca","name":"cadboletimfrequencia","columnCount":19},{"schema":"biblioteca","name":"cadboletimfrequencialevel1","columnCount":4},{"schema":"biblioteca","name":"cadboletimfrequenciatipohtp","columnCount":2},{"schema":"biblioteca","name":"calendario","columnCount":2},{"schema":"biblioteca","name":"calendariomes","columnCount":3},{"schema":"biblioteca","name":"calendariomesdia","columnCount":12},{"schema":"biblioteca","name":"camera","columnCount":8},{"schema":"biblioteca","name":"cardapio","columnCount":4},{"schema":"biblioteca","name":"cardapiocalculo","columnCount":11},{"schema":"biblioteca","name":"cardapiocalculoalimento","columnCount":6},{"schema":"biblioteca","name":"cardapioprato","columnCount":2},{"schema":"biblioteca","name":"cardapiopratoalimento","columnCount":5},{"schema":"biblioteca","name":"cargo","columnCount":10},{"schema":"biblioteca","name":"cargojornada","columnCount":7},{"schema":"biblioteca","name":"cargojornadanatureza","columnCount":3},{"schema":"biblioteca","name":"cartorio","columnCount":5},{"schema":"biblioteca","name":"categoria","columnCount":3},{"schema":"biblioteca","name":"categoriaemprestimo","columnCount":3},{"schema":"biblioteca","name":"categorialegenda","columnCount":2},{"schema":"biblioteca","name":"cbo","columnCount":3},{"schema":"biblioteca","name":"chat","columnCount":4},{"schema":"biblioteca","name":"chatconfig","columnCount":7},{"schema":"biblioteca","name":"chatgrupos","columnCount":2},{"schema":"biblioteca","name":"chtmensagens","columnCount":10},{"schema":"biblioteca","name":"chtusr","columnCount":5},{"schema":"biblioteca","name":"ciclo","columnCount":2},{"schema":"biblioteca","name":"classecurso","columnCount":2},{"schema":"biblioteca","name":"classificacaofunccurso","columnCount":3},{"schema":"biblioteca","name":"classificacaofuncficha","columnCount":4},{"schema":"biblioteca","name":"classificacaofuncformacao","columnCount":4},{"schema":"biblioteca","name":"classificacaofuncionario","columnCount":8},{"schema":"biblioteca","name":"classificacaoreserva","columnCount":7},{"schema":"biblioteca","name":"colecao","columnCount":2},{"schema":"biblioteca","name":"combustivel","columnCount":2},{"schema":"biblioteca","name":"componentealimentar","columnCount":4},{"schema":"biblioteca","name":"componentepedagogico","columnCount":3},{"schema":"biblioteca","name":"conceito","columnCount":8},{"schema":"biblioteca","name":"conceitonota","columnCount":6},{"schema":"biblioteca","name":"conteudoprogramatico","columnCount":4},{"schema":"biblioteca","name":"conteudoprogramaticoaula","columnCount":2},{"schema":"biblioteca","name":"contratojornada","columnCount":12},{"schema":"biblioteca","name":"contratounidade","columnCount":14},{"schema":"biblioteca","name":"controle","columnCount":1},{"schema":"biblioteca","name":"convencao","columnCount":10},{"schema":"biblioteca","name":"convencaobeneficio","columnCount":2},{"schema":"biblioteca","name":"convencaocategoria","columnCount":4},{"schema":"biblioteca","name":"criterio","columnCount":3},{"schema":"biblioteca","name":"criterioatuacao","columnCount":2},{"schema":"biblioteca","name":"criteriodedesempate","columnCount":4},{"schema":"biblioteca","name":"criteriolevel1","columnCount":5},{"schema":"biblioteca","name":"criteriolevel3","columnCount":2},{"schema":"biblioteca","name":"cursoreferenciado","columnCount":2},{"schema":"biblioteca","name":"cursosuperior","columnCount":5},{"schema":"biblioteca","name":"cursotecnico","columnCount":4},{"schema":"biblioteca","name":"dadosfisicos","columnCount":7},{"schema":"biblioteca","name":"dependencia","columnCount":3},{"schema":"biblioteca","name":"dependenciaadministrativa","columnCount":3},{"schema":"biblioteca","name":"despesasviagens","columnCount":8},{"schema":"biblioteca","name":"destinolixo","columnCount":2},{"schema":"biblioteca","name":"destinotransporte","columnCount":6},{"schema":"biblioteca","name":"disciplina","columnCount":7},{"schema":"biblioteca","name":"disciplinadispensada","columnCount":3},{"schema":"biblioteca","name":"distritos","columnCount":4},{"schema":"biblioteca","name":"documento","columnCount":3},{"schema":"biblioteca","name":"editora","columnCount":11},{"schema":"biblioteca","name":"efetivacao","columnCount":2},{"schema":"biblioteca","name":"eixo","columnCount":2},{"schema":"biblioteca","name":"email","columnCount":3},{"schema":"biblioteca","name":"emaillog","columnCount":5},{"schema":"biblioteca","name":"emprestimo","columnCount":5},{"schema":"biblioteca","name":"emprestimoitem","columnCount":9},{"schema":"biblioteca","name":"encargos","columnCount":7},{"schema":"biblioteca","name":"equipamento","columnCount":3},{"schema":"biblioteca","name":"errosbf","columnCount":10},{"schema":"biblioteca","name":"escolaridade","columnCount":2},{"schema":"biblioteca","name":"esgotosanitario","columnCount":2},{"schema":"biblioteca","name":"especializacao","columnCount":2},{"schema":"biblioteca","name":"especificosimposio","columnCount":2},{"schema":"biblioteca","name":"estadocivil","columnCount":2},{"schema":"biblioteca","name":"eventos","columnCount":2},{"schema":"biblioteca","name":"exemplar","columnCount":6},{"schema":"biblioteca","name":"exemplartombo","columnCount":13},{"schema":"biblioteca","name":"faixasalarial","columnCount":2},{"schema":"biblioteca","name":"faltaafastamento","columnCount":6},{"schema":"biblioteca","name":"faltaafastamentodias","columnCount":6},{"schema":"biblioteca","name":"faltashtp","columnCount":7},{"schema":"biblioteca","name":"faltashtpdias","columnCount":4},{"schema":"biblioteca","name":"feriado","columnCount":4},{"schema":"biblioteca","name":"ficha","columnCount":5},{"schema":"biblioteca","name":"fichaafastamentomes","columnCount":4},{"schema":"biblioteca","name":"fichafrequencia","columnCount":2},{"schema":"biblioteca","name":"fichafrequenciadia","columnCount":4},{"schema":"biblioteca","name":"fichatempo","columnCount":3},{"schema":"biblioteca","name":"fichaunidade","columnCount":5},{"schema":"biblioteca","name":"finalidadesituacaotransporte","columnCount":2},{"schema":"biblioteca","name":"formacaocontinuada","columnCount":3},{"schema":"biblioteca","name":"frequenciaaluno","columnCount":4},{"schema":"biblioteca","name":"funcionario","columnCount":12},{"schema":"biblioteca","name":"funcionariocontrato","columnCount":17},{"schema":"biblioteca","name":"funcionarioformacao","columnCount":28},{"schema":"biblioteca","name":"funcionariotemposervico","columnCount":7},{"schema":"biblioteca","name":"geracaoboletim","columnCount":11},{"schema":"biblioteca","name":"geracaoboletimfun","columnCount":14},{"schema":"biblioteca","name":"grauparentesco","columnCount":2},{"schema":"biblioteca","name":"gravaparecer","columnCount":6},{"schema":"biblioteca","name":"grupoalimentar","columnCount":2},{"schema":"biblioteca","name":"grupoavaliacao","columnCount":4},{"schema":"biblioteca","name":"grupousuario","columnCount":3},{"schema":"biblioteca","name":"grupousuariomenu","columnCount":7},{"schema":"biblioteca","name":"grupousuprograma","columnCount":6},{"schema":"biblioteca","name":"histfechamentobimestre","columnCount":7},{"schema":"biblioteca","name":"historico","columnCount":5},{"schema":"biblioteca","name":"historicocargo","columnCount":10},{"schema":"biblioteca","name":"historicodisciplina","columnCount":24},{"schema":"biblioteca","name":"historicomunicipio","columnCount":11},{"schema":"biblioteca","name":"histreaberturaboletim","columnCount":7},{"schema":"biblioteca","name":"horario","columnCount":12},{"schema":"biblioteca","name":"horarioaula","columnCount":5},{"schema":"biblioteca","name":"horariograde","columnCount":17},{"schema":"biblioteca","name":"horariomodelo","columnCount":14},{"schema":"biblioteca","name":"horariomodeloaula","columnCount":9},{"schema":"biblioteca","name":"horarioturma","columnCount":6},{"schema":"biblioteca","name":"idioma","columnCount":2},{"schema":"biblioteca","name":"increvealunotransferencia","columnCount":10},{"schema":"biblioteca","name":"inscrevealunoportransf","columnCount":11},{"schema":"biblioteca","name":"inscricao","columnCount":8},{"schema":"biblioteca","name":"inscricaodisciplina","columnCount":2},{"schema":"biblioteca","name":"inscricaoserie","columnCount":2},{"schema":"biblioteca","name":"inscricaounidade","columnCount":2},{"schema":"biblioteca","name":"instituicaocurso","columnCount":2},{"schema":"biblioteca","name":"instituicaoensino","columnCount":6},{"schema":"biblioteca","name":"intencaodeslocamento","columnCount":20},{"schema":"biblioteca","name":"intencaotransferencia","columnCount":6},{"schema":"biblioteca","name":"jasperserverconfig","columnCount":11},{"schema":"biblioteca","name":"jornada","columnCount":4},{"schema":"biblioteca","name":"jornadacomplementar","columnCount":4},{"schema":"biblioteca","name":"legenda","columnCount":7},{"schema":"biblioteca","name":"licenca","columnCount":11},{"schema":"biblioteca","name":"lingua","columnCount":2},{"schema":"biblioteca","name":"linguaindigena","columnCount":2},{"schema":"biblioteca","name":"loginprodesp","columnCount":4},{"schema":"biblioteca","name":"logradouro","columnCount":2}],"total":1000,"page":1,"pageSize":200,"totalPages":5,"truncated":true,"hint":"Mostrando 200 de 1000 tabelas (página 1/5). Refine com `search`/`schema` ou navegue com `page`. Para ver COLUNAS, chame de novo com `tables: [\"schema.tabela\", ...]` só das tabelas que vai usar."},"phase":"result"}

event: usage
data: {"inputTokens":5262,"inputTokenDetails":{"noCacheTokens":5134,"cacheReadTokens":128,"cacheWriteTokens":0},"outputTokens":70,"outputTokenDetails":{},"totalTokens":5332,"raw":{"input_tokens":5134,"output_tokens":70,"cache_creation_input_tokens":0,"cache_read_input_tokens":128,"service_tier":"standard"},"cachedInputTokens":128}

event: text_delta
data: {"messageId":"asg_1782344851285_xme2on","delta":"São 1000 tabelas, principalmente no schema `biblioteca`. Preciso achar tabelas de **receita**. Vou buscar:"}

event: tool_step
data: {"toolName":"get_connection_schema","toolCallId":"call_3z4ls8qIirOzIvIu8xuHyfKw","args":{},"phase":"call"}

event: tool_step
data: {"toolName":"get_connection_schema","toolCallId":"call_3z4ls8qIirOzIvIu8xuHyfKw","output":{"error":"[\n  {\n    \"code\": \"invalid_type\",\n    \"expected\": \"string\",\n    \"received\": \"undefined\",\n    \"path\": [\n      \"connectionId\"\n    ],\n    \"message\": \"Required\"\n  }\n]","code":"internal_error"},"phase":"result"}

event: usage
data: {"inputTokens":9170,"inputTokenDetails":{"noCacheTokens":9042,"cacheReadTokens":128,"cacheWriteTokens":0},"outputTokens":47,"outputTokenDetails":{},"totalTokens":9217,"raw":{"input_tokens":9042,"output_tokens":47,"cache_creation_input_tokens":0,"cache_read_input_tokens":128,"service_tier":"standard"},"cachedInputTokens":128}

event: tool_step
data: {"toolName":"get_connection_schema","toolCallId":"call_function_rr3cm6bie1v0_1","args":{"connectionId":"cmqplyc2s0005ny0p11y1uqh8","search":"receita"},"phase":"call"}

event: tool_step
data: {"toolName":"get_connection_schema","toolCallId":"call_function_rr3cm6bie1v0_1","output":{"connectionId":"cmqplyc2s0005ny0p11y1uqh8","cached":true,"fetchedAt":"2026-06-24T23:45:18.405Z","tableCount":1000,"mode":"tables","tables":[],"total":0,"page":1,"pageSize":200,"totalPages":1},"phase":"result"}

event: usage
data: {"inputTokens":9302,"inputTokenDetails":{"noCacheTokens":9188,"cacheReadTokens":114,"cacheWriteTokens":0},"outputTokens":55,"outputTokenDetails":{},"totalTokens":9357,"raw":{"input_tokens":9188,"output_tokens":55,"cache_creation_input_tokens":0,"cache_read_input_tokens":114,"service_tier":"standard"},"cachedInputTokens":114}

event: tool_step
data: {"toolName":"get_connection_schema","toolCallId":"call_019efc0837207ac3ba658eb8","args":{"connectionId":"cmqplyc2s0005ny0p11y1uqh8","search":"arrecad"},"phase":"call"}

event: tool_step
data: {"toolName":"get_connection_schema","toolCallId":"call_019efc0837207ac3ba658eb8","output":{"connectionId":"cmqplyc2s0005ny0p11y1uqh8","cached":true,"fetchedAt":"2026-06-24T23:45:18.405Z","tableCount":1000,"mode":"tables","tables":[],"total":0,"page":1,"pageSize":200,"totalPages":1},"phase":"result"}

event: usage
data: {"inputTokens":9452,"inputTokenDetails":{"noCacheTokens":9324,"cacheReadTokens":128,"cacheWriteTokens":0},"outputTokens":57,"outputTokenDetails":{},"totalTokens":9509,"raw":{"input_tokens":9324,"output_tokens":57,"cache_creation_input_tokens":0,"cache_read_input_tokens":128,"service_tier":"standard"},"cachedInputTokens":128}

event: tool_step
data: {"toolName":"get_connection_schema","toolCallId":"call_R6HaVBjio5Zslo2HXBlRvOZu","args":{},"phase":"call"}

event: tool_step
data: {"toolName":"get_connection_schema","toolCallId":"call_R6HaVBjio5Zslo2HXBlRvOZu","output":{"error":"[\n  {\n    \"code\": \"invalid_type\",\n    \"expected\": \"string\",\n    \"received\": \"undefined\",\n    \"path\": [\n      \"connectionId\"\n    ],\n    \"message\": \"Required\"\n  }\n]","code":"internal_error"},"phase":"result"}

event: usage
data: {"inputTokens":9601,"inputTokenDetails":{"noCacheTokens":9473,"cacheReadTokens":128,"cacheWriteTokens":0},"outputTokens":20,"outputTokenDetails":{},"totalTokens":9621,"raw":{"input_tokens":9473,"output_tokens":20,"cache_creation_input_tokens":0,"cache_read_input_tokens":128,"service_tier":"standard"},"cachedInputTokens":128}

event: tool_step
data: {"toolName":"get_connection_schema","toolCallId":"call_019efc0843f67a82b5d5a0a5","args":{"connectionId":"cmqplyc2s0005ny0p11y1uqh8","search":"financeiro"},"phase":"call"}

event: tool_step
data: {"toolName":"get_connection_schema","toolCallId":"call_019efc0843f67a82b5d5a0a5","output":{"connectionId":"cmqplyc2s0005ny0p11y1uqh8","cached":true,"fetchedAt":"2026-06-24T23:45:18.405Z","tableCount":1000,"mode":"tables","tables":[],"total":0,"page":1,"pageSize":200,"totalPages":1},"phase":"result"}

event: usage
data: {"inputTokens":9707,"inputTokenDetails":{"noCacheTokens":9579,"cacheReadTokens":128,"cacheWriteTokens":0},"outputTokens":56,"outputTokenDetails":{},"totalTokens":9763,"raw":{"input_tokens":9579,"output_tokens":56,"cache_creation_input_tokens":0,"cache_read_input_tokens":128,"service_tier":"standard"},"cachedInputTokens":128}

event: tool_step
data: {"toolName":"get_connection_schema","toolCallId":"call_usR0PsTjNlxi7IlCl9A3pWr7","args":{},"phase":"call"}

event: tool_step
data: {"toolName":"get_connection_schema","toolCallId":"call_usR0PsTjNlxi7IlCl9A3pWr7","output":{"error":"[\n  {\n    \"code\": \"invalid_type\",\n    \"expected\": \"string\",\n    \"received\": \"undefined\",\n    \"path\": [\n      \"connectionId\"\n    ],\n    \"message\": \"Required\"\n  }\n]","code":"internal_error"},"phase":"result"}

event: usage
data: {"inputTokens":9855,"inputTokenDetails":{"noCacheTokens":4909,"cacheReadTokens":4946,"cacheWriteTokens":0},"outputTokens":20,"outputTokenDetails":{},"totalTokens":9875,"raw":{"input_tokens":4909,"output_tokens":20,"cache_creation_input_tokens":0,"cache_read_input_tokens":4946,"service_tier":"standard"},"cachedInputTokens":4946}

event: tool_step
data: {"toolName":"get_connection_schema","toolCallId":"call_019efc0851027ef19334d4e5","args":{"connectionId":"cmqplyc2s0005ny0p11y1uqh8","search":"tribut"},"phase":"call"}

event: tool_step
data: {"toolName":"get_connection_schema","toolCallId":"call_019efc0851027ef19334d4e5","output":{"connectionId":"cmqplyc2s0005ny0p11y1uqh8","cached":true,"fetchedAt":"2026-06-24T23:45:18.405Z","tableCount":1000,"mode":"tables","tables":[{"schema":"compras","name":"comedital_tributos","columnCount":8}],"total":1,"page":1,"pageSize":200,"totalPages":1},"phase":"result"}

event: usage
data: {"inputTokens":9961,"inputTokenDetails":{"noCacheTokens":9833,"cacheReadTokens":128,"cacheWriteTokens":0},"outputTokens":55,"outputTokenDetails":{},"totalTokens":10016,"raw":{"input_tokens":9833,"output_tokens":55,"cache_creation_input_tokens":0,"cache_read_input_tokens":128,"service_tier":"standard"},"cachedInputTokens":128}

event: tool_step
data: {"toolName":"get_connection_schema","toolCallId":"call_oG9LW51hzTxz9ySQXJeyY7pz","args":{},"phase":"call"}

event: tool_step
data: {"toolName":"get_connection_schema","toolCallId":"call_oG9LW51hzTxz9ySQXJeyY7pz","output":{"error":"[\n  {\n    \"code\": \"invalid_type\",\n    \"expected\": \"string\",\n    \"received\": \"undefined\",\n    \"path\": [\n      \"connectionId\"\n    ],\n    \"message\": \"Required\"\n  }\n]","code":"internal_error"},"phase":"result"}

event: usage
data: {"inputTokens":10125,"inputTokenDetails":{"noCacheTokens":9790,"cacheReadTokens":335,"cacheWriteTokens":0},"outputTokens":20,"outputTokenDetails":{},"totalTokens":10145,"raw":{"input_tokens":9790,"output_tokens":20,"cache_creation_input_tokens":0,"cache_read_input_tokens":335,"service_tier":"standard"},"cachedInputTokens":335}

event: text_delta
data: {"messageId":"asg_1782344851285_xme2on","delta":"Vou navegar as páginas restantes para achar tabelas relevantes de receita/orçamento:"}

event: tool_step
data: {"toolName":"get_connection_schema","toolCallId":"call_019efc085ecb7791976be5e7","args":{"connectionId":"cmqplyc2s0005ny0p11y1uqh8","search":"lanc"},"phase":"call"}

event: tool_step
data: {"toolName":"get_connection_schema","toolCallId":"call_019efc085ecb7791976be5e7","output":{"connectionId":"cmqplyc2s0005ny0p11y1uqh8","cached":true,"fetchedAt":"2026-06-24T23:45:18.405Z","tableCount":1000,"mode":"tables","tables":[{"schema":"biblioteca","name":"avaliacaodesenvopclanc","columnCount":4},{"schema":"contabilidade","name":"c_audesp_balanco","columnCount":6}],"total":2,"page":1,"pageSize":200,"totalPages":1},"phase":"result"}

event: usage
data: {"inputTokens":10231,"inputTokenDetails":{"noCacheTokens":10103,"cacheReadTokens":128,"cacheWriteTokens":0},"outputTokens":71,"outputTokenDetails":{},"totalTokens":10302,"raw":{"input_tokens":10103,"output_tokens":71,"cache_creation_input_tokens":0,"cache_read_input_tokens":128,"service_tier":"standard"},"cachedInputTokens":128}

event: tool_step
data: {"toolName":"get_connection_schema","toolCallId":"call_Tz9IvBY8KyoBz1UbsmvU60R9","args":{},"phase":"call"}

event: tool_step
data: {"toolName":"get_connection_schema","toolCallId":"call_Tz9IvBY8KyoBz1UbsmvU60R9","output":{"error":"[\n  {\n    \"code\": \"invalid_type\",\n    \"expected\": \"string\",\n    \"received\": \"undefined\",\n    \"path\": [\n      \"connectionId\"\n    ],\n    \"message\": \"Required\"\n  }\n]","code":"internal_error"},"phase":"result"}

event: usage
data: {"inputTokens":10436,"inputTokenDetails":{"noCacheTokens":10308,"cacheReadTokens":128,"cacheWriteTokens":0},"outputTokens":20,"outputTokenDetails":{},"totalTokens":10456,"raw":{"input_tokens":10308,"output_tokens":20,"cache_creation_input_tokens":0,"cache_read_input_tokens":128,"service_tier":"standard"},"cachedInputTokens":128}

event: tool_step
data: {"toolName":"get_connection_schema","toolCallId":"call_pAMVQL4oIflnAKcoINcHs5KS","args":{},"phase":"call"}

event: tool_step
data: {"toolName":"get_connection_schema","toolCallId":"call_pAMVQL4oIflnAKcoINcHs5KS","output":{"error":"[\n  {\n    \"code\": \"invalid_type\",\n    \"expected\": \"string\",\n    \"received\": \"undefined\",\n    \"path\": [\n      \"connectionId\"\n    ],\n    \"message\": \"Required\"\n  }\n]","code":"internal_error"},"phase":"result"}

event: usage
data: {"inputTokens":10541,"inputTokenDetails":{"noCacheTokens":10413,"cacheReadTokens":128,"cacheWriteTokens":0},"outputTokens":20,"outputTokenDetails":{},"totalTokens":10561,"raw":{"input_tokens":10413,"output_tokens":20,"cache_creation_input_tokens":0,"cache_read_input_tokens":128,"service_tier":"standard"},"cachedInputTokens":128}

event: tool_step
data: {"toolName":"get_connection_schema","toolCallId":"call_0trmNLYH3hhfa1Vt57hoTuzc","args":{},"phase":"call"}

event: tool_step
data: {"toolName":"get_connection_schema","toolCallId":"call_0trmNLYH3hhfa1Vt57hoTuzc","output":{"error":"[\n  {\n    \"code\": \"invalid_type\",\n    \"expected\": \"string\",\n    \"received\": \"undefined\",\n    \"path\": [\n      \"connectionId\"\n    ],\n    \"message\": \"Required\"\n  }\n]","code":"internal_error"},"phase":"result"}

event: usage
data: {"inputTokens":10646,"inputTokenDetails":{"noCacheTokens":10311,"cacheReadTokens":335,"cacheWriteTokens":0},"outputTokens":20,"outputTokenDetails":{},"totalTokens":10666,"raw":{"input_tokens":10311,"output_tokens":20,"cache_creation_input_tokens":0,"cache_read_input_tokens":335,"service_tier":"standard"},"cachedInputTokens":335}

event: tool_step
data: {"toolName":"get_connection_schema","toolCallId":"call_aHDguphMbUGzCRPHFxYBoB0c","args":{},"phase":"call"}

event: tool_step
data: {"toolName":"get_connection_schema","toolCallId":"call_aHDguphMbUGzCRPHFxYBoB0c","output":{"error":"[\n  {\n    \"code\": \"invalid_type\",\n    \"expected\": \"string\",\n    \"received\": \"undefined\",\n    \"path\": [\n      \"connectionId\"\n    ],\n    \"message\": \"Required\"\n  }\n]","code":"internal_error"},"phase":"result"}

event: usage
data: {"inputTokens":10751,"inputTokenDetails":{"noCacheTokens":10623,"cacheReadTokens":128,"cacheWriteTokens":0},"outputTokens":20,"outputTokenDetails":{},"totalTokens":10771,"raw":{"input_tokens":10623,"output_tokens":20,"cache_creation_input_tokens":0,"cache_read_input_tokens":128,"service_tier":"standard"},"cachedInputTokens":128}

event: tool_step
data: {"toolName":"get_connection_schema","toolCallId":"call_function_4te3hofydk4c_1","args":{"connectionId":"cmqplyc2s0005ny0p11y1uqh8","search":"orcam"},"phase":"call"}

event: tool_step
data: {"toolName":"get_connection_schema","toolCallId":"call_function_4te3hofydk4c_1","output":{"connectionId":"cmqplyc2s0005ny0p11y1uqh8","cached":true,"fetchedAt":"2026-06-24T23:45:18.405Z","tableCount":1000,"mode":"tables","tables":[],"total":0,"page":1,"pageSize":200,"totalPages":1},"phase":"result"}

event: usage
data: {"inputTokens":10856,"inputTokenDetails":{"noCacheTokens":1568,"cacheReadTokens":9288,"cacheWriteTokens":0},"outputTokens":55,"outputTokenDetails":{},"totalTokens":10911,"raw":{"input_tokens":1568,"output_tokens":55,"cache_creation_input_tokens":0,"cache_read_input_tokens":9288,"service_tier":"standard"},"cachedInputTokens":9288}

event: tool_step
data: {"toolName":"get_connection_schema","toolCallId":"call_4Vo3mehDPvahCbR6qn1CW8VD","args":{},"phase":"call"}

event: tool_step
data: {"toolName":"get_connection_schema","toolCallId":"call_4Vo3mehDPvahCbR6qn1CW8VD","output":{"error":"[\n  {\n    \"code\": \"invalid_type\",\n    \"expected\": \"string\",\n    \"received\": \"undefined\",\n    \"path\": [\n      \"connectionId\"\n    ],\n    \"message\": \"Required\"\n  }\n]","code":"internal_error"},"phase":"result"}

event: usage
data: {"inputTokens":11005,"inputTokenDetails":{"noCacheTokens":10670,"cacheReadTokens":335,"cacheWriteTokens":0},"outputTokens":20,"outputTokenDetails":{},"totalTokens":11025,"raw":{"input_tokens":10670,"output_tokens":20,"cache_creation_input_tokens":0,"cache_read_input_tokens":335,"service_tier":"standard"},"cachedInputTokens":335}

